@startuml

class BodyMapperFactory {
	createMapping(physicsBody : PhysicsBody, visualBody : VisualBody)
}

class AbstractBodyMapper {
	+update() : void
	-m_physicsBody : PhysicsBody
	-m_visualBody : VisualBody
}

class SoftBodyMapper {
	+update() : void
	-m_sofaVisualModel : sofa::VisualModelImpl
}

class RigidBodyMapper {
	+update() : void
}

SoftBodyMapper --|> AbstractBodyMapper
RigidBodyMapper --|> AbstractBodyMapper
BodyMapperFactory ..> AbstractBodyMapper

@enduml
