@startuml

class VisualServer {
	+ addLight(builder : Builder) : Entity
}

class Light {
}

class FilamentScopedEntity {
	m_engine : Engine
}

package Filament #FFDDDD {
	class LightManager
	class Entity
	class Engine
	class Builder
}

Light --|> FilamentScopedEntity
LightManager --> Builder
Light ..> LightManager
FilamentScopedEntity *-- Entity
VisualServer *-- Light
VisualServer *-- Engine
LightManager --> Entity
Engine *-- LightManager

@enduml
