<VTKFile type="UnstructuredGrid" version="0.1" byte_order="BigEndian">
  <UnstructuredGrid>
    <Piece NumberOfPoints="450" NumberOfCells="1289">
      <Points>
        <DataArray type="Float32" NumberOfComponents="3" format="ascii">
          -0.000180494 -0.309361 -0.378762
          0.275895 -0.308376 0.0849621
          0.0947577 -0.430434 0.198983
          -0.406007 0.422833 0.695717
          -0.0119687 -0.404533 -0.0200728
          -0.443418 0.564889 0.40609
          -0.0610377 0.932746 -0.183615
          0.122769 -0.738744 0.720802
          0.483348 0.527215 0.449969
          -0.439905 -0.119324 0.359205
          0.321064 -0.0600705 0.688751
          0.672078 0.378577 -0.487774
          -0.70708 0.306574 -0.459571
          -0.0286649 0.445168 -0.757669
          0.768251 0.0966067 0.0759187
          0.53271 0.819176 -0.0860176
          -0.792568 0.215549 0.461913
          -0.608687 0.759573 -0.113191
          0.72643 0.133886 0.544534
          -0.294617 -0.58788 0.479602
          -0.14225 -0.202598 0.735543
          0.450839 0.299777 0.765242
          0.720609 0.439371 0.652413
          0.754146 0.382355 0.329055
          0.0172654 -0.759898 0.361225
          -0.192886 -0.914957 0.627896
          0.0796644 -0.967326 0.551008
          0.317804 -0.770304 0.469544
          0.297641 0.037276 -0.652664
          -0.170565 0.00134061 -0.689026
          0.803228 0.491071 -0.0791749
          -0.683274 0.478259 0.57665
          -0.728695 0.468569 0.231919
          -0.742689 0.0361515 0.0153657
          0.275254 0.758325 -0.511508
          0.0348175 0.786931 0.32114
          -0.343198 0.722907 -0.516302
          0.615863 -0.0507149 -0.33235
          -0.509686 0.0925176 0.631634
          -0.149203 -0.646549 0.720188
          -0.225342 -0.816026 0.398622
          0.830217 0.198203 -0.24804
          -0.811403 0.447435 -0.130773
          -0.324608 0.855077 0.154637
          0.675566 0.656342 -0.324534
          0.245335 -0.875705 0.629837
          -0.484019 -0.0913643 -0.353637
          -0.89608 -0.0484784 -0.360113
          -1.20146 0.339258 -0.419311
          -0.638372 0.624182 -0.411075
          0.282103 -0.692984 0.635427
          0.137164 -0.398014 0.726661
          0.255972 -0.490902 0.430808
          0.245596 -0.305007 0.306657
          0.520814 -0.101054 0.228228
          -0.0139978 0.223158 0.768049
          0.157017 0.632794 0.733835
          -0.299535 0.178175 0.817329
          -0.102246 0.488248 0.604071
          0.0930418 0.604365 0.488937
          0.0872227 0.48175 0.637146
          0.450517 0.594381 0.736387
          -0.0385409 0.424308 0.78643
          0.150975 0.345377 0.777048
          -0.504512 0.561502 0.594388
          -0.304855 0.532885 0.554562
          -0.350612 0.655924 0.767422
          -0.472134 0.556262 0.74917
          -0.582303 0.423103 0.711111
          -0.146376 0.604809 0.773873
          -0.237636 0.657738 0.643752
          -0.14756 0.629792 0.457671
          -0.29858 -0.740129 0.616261
          -0.323396 -0.881109 0.522699
          -0.19087 -0.941722 0.477784
          0.81174 0.317841 0.514849
          0.773194 0.198569 0.372358
          -0.226851 -0.342374 0.229028
          -0.503041 0.426467 0.60159
          0.214052 0.913198 0.041038
          0.228345 -0.926357 0.457667
          -0.696199 -0.105368 -0.200338
          -0.782297 0.139717 -0.220405
          -0.686145 0.0217188 -0.382707
          -0.933972 0.197379 -0.417493
          -0.495604 0.349603 0.688105
          -0.674643 0.245944 0.636836
          -0.80017 0.349036 0.573695
          0.581256 0.285467 0.594085
          -0.46797 0.447959 -0.611338
          -0.463248 0.125192 -0.592835
          -0.271822 -0.583563 0.638269
          -0.252732 -0.342052 0.547926
          0.298969 0.457527 0.667987
          0.308645 0.642862 0.614725
          0.30213 0.693112 0.356954
          0.296958 0.565557 0.795293
          0.284202 0.700336 0.744959
          -0.980014 0.434845 -0.326313
          0.071831 -0.147031 -0.613234
          -0.684444 0.0730888 0.543627
          0.292858 0.896598 -0.246948
          -0.317687 -0.749121 0.478592
          -0.35881 0.880467 -0.250267
          0.498696 0.0884363 0.683513
          0.322779 0.568849 0.466074
          -0.129013 0.321148 0.668348
          -0.219854 0.438061 0.77457
          -0.0583709 0.914427 0.0931273
          0.722356 0.296161 0.627438
          -0.141297 -0.638654 0.362305
          0.387129 0.485965 0.754753
          0.310441 0.356976 0.782118
          0.225911 0.45699 0.776793
          0.0949815 0.512065 0.775703
          0.654362 0.189545 0.632417
          0.23351 -0.282681 0.542778
          0.158589 -0.189834 0.715107
          0.26781 -0.450078 0.609108
          0.0166591 -0.276003 0.80047
          0.00601201 -0.106776 0.749429
          0.0855187 -0.17546 0.81229
          0.14703 -0.0415191 0.761604
          0.322451 -0.881659 0.529605
          -1.0335 0.332378 -0.4529
          -1.13734 0.136085 -0.494475
          -1.1072 0.461907 -0.410541
          -0.814911 0.281235 0.0711034
          0.344067 0.415383 -0.679911
          0.0592403 0.166628 -0.761093
          -0.0391162 0.826882 -0.487609
          -0.244818 -0.192696 -0.485073
          -0.0570503 -0.18274 0.817891
          -0.109386 -0.0938016 0.762949
          -0.333238 -0.0669559 0.675455
          -0.163771 0.097135 0.657598
          -0.0358033 0.0506064 0.746948
          -0.482293 -0.0835204 0.548022
          -0.229644 -0.175209 0.588483
          -0.285092 -0.214555 0.411882
          0.558888 -0.0458617 0.474719
          0.696661 0.146713 -0.438562
          0.863311 -0.0232655 -0.360416
          0.750151 0.0192513 -0.198239
          0.168277 0.154009 0.712286
          0.322626 0.173455 0.81613
          -0.839964 0.32844 -0.344915
          -0.784463 0.195134 -0.391586
          -0.874122 0.099194 -0.326936
          0.184433 0.403631 0.669748
          -0.157728 0.0221558 0.758326
          -0.116662 0.120982 0.750974
          -0.138876 0.244437 0.768677
          -0.233714 0.688235 0.761233
          0.427633 0.809066 0.155845
          -0.393702 0.304976 0.801355
          0.631297 0.360519 0.675176
          0.495454 0.436621 0.597854
          0.533495 0.471626 0.736712
          0.534062 0.561163 0.634933
          0.631106 0.489343 0.527323
          0.100041 -0.885061 0.679318
          0.835524 0.124708 -0.380928
          0.779995 0.28641 -0.385703
          1.00318 0.273078 -0.369415
          0.888953 0.380896 -0.258659
          1.0357 0.0737572 -0.456842
          -1.12424 0.382062 -0.479357
          -1.21564 0.450434 -0.453227
          -1.21295 0.373415 -0.504679
          -1.31042 0.211367 -0.506102
          -1.15491 0.270556 -0.503357
          -1.28722 0.383577 -0.440324
          -1.22963 0.229424 -0.428124
          -1.26382 0.0906634 -0.4435
          -1.10615 -0.0183115 -0.352017
          -1.00888 0.0626608 -0.443865
          -1.1195 0.0218809 -0.463845
          -1.04341 -0.0273851 -0.426698
          -1.20854 0.194275 -0.512363
          -1.11484 0.213357 -0.408873
          -0.195441 0.424399 0.65419
          0.970148 0.139941 -0.355143
          0.827961 0.308664 -0.0994212
          -0.975883 0.118156 -0.357407
          0.202119 -0.328833 -0.185115
          0.321861 -0.179606 -0.430672
          -1.12501 0.310482 -0.436439
          -1.07731 0.371917 -0.366682
          -0.255746 0.272946 -0.724811
          0.228837 0.640224 0.80526
          -0.122362 0.196126 0.673043
          -0.178354 0.17726 0.734349
          -1.06841 0.251957 -0.476758
          -1.01812 0.255514 -0.374246
          -0.951515 0.319104 -0.29053
          -0.944066 0.35595 -0.393707
          -0.842209 0.334688 -0.20605
          -1.0122 0.406143 -0.412603
          -0.881141 0.379155 -0.278271
          -0.756726 0.493673 -0.353885
          -0.8045 0.426274 -0.23028
          -0.756695 0.593166 -0.210212
          -0.73252 0.609605 0.028826
          -0.287398 -0.286805 -0.167571
          -0.479437 -0.158363 -0.129289
          -0.34137 0.51832 0.771489
          -0.565613 0.533751 0.687096
          0.0776852 0.661259 -0.653988
          -0.146484 -0.423084 0.723756
          0.748253 -0.0700332 -0.302297
          0.645338 -0.102213 -0.182458
          0.77583 -0.10755 -0.180259
          0.869586 -0.0281451 -0.228618
          0.843915 -0.0966136 -0.296069
          1.0005 -0.0764423 -0.302777
          -0.303974 0.701964 0.69725
          0.264318 0.532356 0.572108
          0.378171 0.560224 0.569058
          0.415373 0.635257 0.640447
          -0.255299 0.0891237 0.752932
          0.917997 0.058997 -0.403873
          0.96328 -0.0367945 -0.394222
          0.93978 -0.00504736 -0.308998
          1.02221 0.00056066 -0.340122
          1.05418 -0.0210455 -0.432069
          0.87708 0.0577176 -0.323787
          0.782802 0.103539 -0.284453
          0.742236 0.0601885 -0.3811
          0.651361 0.645286 0.102229
          0.0376423 -0.568619 0.325241
          -0.999648 0.264694 -0.447276
          0.540611 0.205031 0.679219
          -0.958161 0.393429 -0.261253
          -0.207532 -0.463887 0.369917
          0.576414 0.201893 0.60308
          0.577936 0.124757 0.653527
          0.499247 0.593255 -0.531277
          0.608917 0.251652 0.66561
          0.519307 0.31212 0.68107
          0.751851 0.435433 0.523939
          0.786011 0.375134 0.60219
          0.712307 -0.0483265 -0.146321
          0.593944 -0.0975772 0.0261688
          0.752334 0.059107 -0.0610393
          -0.904738 0.119195 -0.4033
          -0.914596 0.176362 -0.334802
          -0.868609 0.180832 -0.390728
          -0.841241 0.120228 -0.381548
          -0.803028 0.0162559 -0.35733
          -0.874646 0.0573465 -0.384625
          -0.873357 0.0160783 -0.311599
          -0.849924 -0.111552 -0.22527
          -0.956545 -0.0539931 -0.251923
          -0.95596 -0.00294526 -0.320126
          -0.970329 -0.0905655 -0.332623
          -1.02014 -0.041675 -0.296457
          -0.94164 0.00878557 -0.402792
          -0.775656 -0.00145224 -0.223346
          -0.728244 -0.0597532 -0.311696
          -0.782678 -0.0779189 -0.161082
          -1.00009 0.0460016 -0.369188
          -1.03912 0.103826 -0.391413
          -1.05838 0.0398594 -0.403417
          -1.14132 0.051294 -0.386736
          -1.00721 0.331877 -0.348426
          0.369252 -0.130333 0.498013
          -0.268158 0.593469 0.80735
          0.851533 -0.107836 -0.214215
          -1.14946 -0.0169058 -0.410277
          -1.01739 0.170337 -0.458032
          0.560651 0.00192157 0.600757
          0.246017 -0.939623 0.5542
          0.829564 0.00136437 -0.291759
          -0.271188 -0.896175 0.438203
          0.299011 -0.861104 0.436088
          0.179216 -0.763295 0.383148
          -0.838677 -0.0394881 -0.198683
          -0.814756 0.365259 -0.262319
          -0.0823417 -0.423738 0.149001
          0.94628 0.0588382 -0.338919
          -0.430891 0.871407 -0.0400539
          0.251085 0.0471025 0.740949
          -1.06461 0.451949 -0.335566
          -0.0286591 -0.910478 0.430252
          -0.0704016 -0.967122 0.561386
          0.239216 0.83429 0.225948
          -0.921178 0.346407 -0.243221
          -0.878747 0.253802 -0.258245
          -1.09925 0.0920337 -0.423942
          0.472114 0.784114 -0.369086
          -1.20555 0.150501 -0.441258
          -1.20175 0.130015 -0.503119
          0.797073 0.255272 0.18666
          -0.620516 -0.0907088 -0.0343575
          0.909632 0.138203 -0.40699
          0.995401 0.195181 -0.44774
          1.26132 0.213149 -0.413738
          1.21356 0.05087 -0.476396
          1.05748 0.144094 -0.395068
          1.13593 0.222175 -0.49949
          1.16698 0.392956 -0.391896
          1.07058 0.336419 -0.468154
          1.01148 0.445588 -0.354366
          0.922423 0.364563 -0.375001
          0.986077 0.365728 -0.29272
          0.91328 0.240658 -0.406527
          0.894395 0.132919 -0.331165
          0.916296 0.271746 -0.290966
          1.07143 0.364454 -0.369998
          1.08841 0.451072 -0.421138
          1.13674 0.398412 -0.47773
          1.30219 0.35984 -0.490054
          1.23517 0.439314 -0.461391
          1.02335 0.403184 -0.422103
          1.09075 0.437485 -0.341631
          1.19827 0.306089 -0.456857
          1.27701 0.252138 -0.520472
          1.11821 0.269705 -0.417665
          1.25315 0.364276 -0.41014
          1.14733 0.461858 -0.380082
          1.21091 0.372768 -0.504477
          1.01483 0.0779867 -0.379534
          0.927832 0.204736 -0.337174
          0.929455 0.4107 -0.315323
          0.762143 0.490969 -0.342047
          0.994689 0.325382 -0.43435
          1.04249 0.398038 -0.321978
          0.969672 0.103456 -0.431945
          0.98374 0.031892 -0.426993
          1.13886 0.340749 -0.433723
          1.15569 0.336435 -0.497838
          1.20749 0.31563 -0.513219
          0.620942 0.486592 0.356322
          0.838561 0.106798 -0.321183
          0.993566 0.429988 -0.294173
          0.952815 0.402871 -0.262456
          1.12951 0.183934 -0.422031
          1.06828 0.1635 -0.476669
          1.05999 0.246987 -0.473713
          1.12271 0.0932912 -0.434985
          1.17083 0.234147 -0.442251
          1.20782 0.152825 -0.453951
          1.30377 0.158459 -0.489115
          1.3221 0.229148 -0.460597
          1.2737 0.14227 -0.424822
          1.21445 0.0880294 -0.401447
          1.15876 -0.00704528 -0.400346
          1.14132 0.0261409 -0.467463
          1.16608 0.105857 -0.49481
          1.23314 0.110849 -0.500313
          1.23855 0.183578 -0.514106
          1.093 -0.041349 -0.359735
          1.09191 0.0312532 -0.388209
          -1.31259 0.285951 -0.438191
          -1.29069 0.330785 -0.511827
          -1.30157 0.213054 -0.432727
          -1.11828 0.42259 -0.359225
          -0.692294 -0.0497583 -0.106137
          -0.607839 -0.106703 -0.139617
          -0.535826 0.780772 -0.311276
          0.696767 0.678312 -0.109212
          -0.648904 0.483274 0.669351
          -0.44301 0.16316 0.755108
          -0.814669 0.233255 -0.169699
          -0.828079 0.3261 -0.0705932
          -0.244744 0.551138 -0.675768
          0.62093 0.0399073 -0.427375
          0.496219 0.191633 -0.594806
          -0.575795 0.317931 0.589138
          -0.586815 0.336273 0.679237
          -0.669398 0.388586 0.682941
          -0.721655 0.445065 0.645534
          0.813032 -0.0495688 -0.328654
          0.802741 0.0159821 -0.357227
          -0.206613 0.330575 0.747903
          -0.28341 0.289843 0.81987
          -0.296902 0.373274 0.764207
          1.19582 0.149394 -0.506498
          -1.16631 0.0916418 -0.447286
          -1.20906 0.0323147 -0.420306
          -1.21616 0.0608323 -0.48144
          -1.21344 0.0983706 -0.401757
          -1.11697 0.0805727 -0.480839
          -1.134 0.142524 -0.43295
          -1.25311 0.137421 -0.413081
          0.25242 0.409322 0.715426
          -0.0193744 -0.466697 0.259331
          -1.0487 -0.066835 -0.362099
          -0.748674 0.0683433 -0.115567
          0.3041 -0.578525 0.541892
          0.263413 -0.64265 0.412511
          -0.0823331 -0.272675 0.778093
          0.224125 0.672019 0.666087
          0.173684 0.570602 0.63587
          0.0793592 -0.480738 0.288628
          0.164436 -0.553314 0.358905
          0.192359 -0.425115 0.333384
          0.194703 -0.375011 0.226954
          -1.22966 0.401892 -0.404347
          -0.126362 0.496589 0.813004
          -0.239056 0.389178 0.728829
          1.15206 0.0570781 -0.389025
          -0.524814 0.228374 0.687246
          -0.580824 0.20997 0.596375
          -0.619461 0.109934 0.626113
          -0.804321 0.454527 0.0402059
          -0.765171 0.43513 0.563368
          -0.690039 0.443205 0.403033
          -0.785653 0.350532 0.437043
          -0.343622 -0.042542 -0.585986
          0.124091 0.531189 0.554556
          0.307304 0.644032 0.795571
          0.856559 0.0338952 -0.37383
          -0.648708 0.152998 -0.475504
          -0.538175 0.0235564 -0.467222
          -0.117949 0.698442 -0.621718
          1.06647 0.0867008 -0.407658
          0.748544 0.599419 0.00275875
          -1.16081 0.253196 -0.438314
          -0.859083 0.00439871 -0.366636
          0.0118501 -0.00568904 -0.715446
          -1.1605 0.0507857 -0.480154
          -1.15852 0.0943363 -0.4916
          -0.253361 -0.675568 0.401644
          -0.251172 -0.938053 0.553776
          -0.168781 -0.95546 0.557986
          -1.03387 0.393193 -0.318059
          1.14957 0.454604 -0.445622
          -0.352311 0.631828 0.609135
          -0.425936 0.636317 0.690229
          -0.537001 0.695373 0.191217
          0.851071 0.29471 -0.211649
          0.818549 0.395158 -0.171474
          0.823704 0.358513 -0.234502
          0.771743 0.131555 -0.170759
          0.0109968 0.28958 -0.100554
          -0.472466 0.313042 -0.196681
          0.470891 0.320856 -0.199085
          0.400001 0.222239 0.303087
          -0.211373 0.238615 0.258893
          -0.325291 0.24638 0.563937
          0.0973601 0.348617 0.282649
          0.00668892 -0.0601973 0.157342
          0.325349 0.245737 0.553468
          0.0459273 0.102072 0.44421
          -0.62826 0.381011 -0.276253
          -0.49666 0.241799 0.319032
          0.514978 0.0945518 -0.113991
          0.639441 0.399765 -0.231179
        </DataArray>
      </Points>
      <Cells>
        <DataArray type="Int32" Name="connectivity" format="ascii">
          106 60 62 55
          1 4 2 443
          89 49 446 437
          77 234 387 139
          40 72 39 110
          301 321 330 311
          237 11 449 438
          5 32 447 408
          245 184 250 148
          133 138 120 20
          120 138 116 117
          316 317 332 312
          82 389 437 364
          425 73 40 274
          169 167 168 48
          203 437 32 406
          138 20 116 117
          107 400 181 69
          301 310 320 428
          146 196 195 199
          96 111 113 93
          448 211 242 243
          235 18 115 236
          440 139 443 445
          437 127 32 406
          367 141 438 448
          438 128 237 368
          202 200 446 201
          240 109 22 156
          426 285 284 25
          448 143 227 435
          191 152 151 55
          135 150 136 151
          436 442 286 35
          157 217 444 93
          85 370 78 369
          206 181 267 107
          294 33 9 447
          119 121 120 132
          369 370 403 85
          5 447 78 408
          334 413 374 162
          304 326 164 306
          206 401 107 377
          258 249 83 259
          445 106 442 440
          342 351 350 378
          253 255 254 47
          78 64 67 3
          443 4 279 77
          141 163 449 227
          93 394 217 149
          442 411 444 217
          183 449 432 435
          27 50 391 276
          147 247 288 146
          70 267 216 66
          116 139 138 443
          5 447 440 441
          157 239 156 158
          77 139 387 443
          107 181 267 69
          438 293 30 229
          9 138 137 139
          234 110 209 91
          166 322 329 417
          402 347 353 348
          301 311 330 310
          287 199 195 233
          164 296 299 182
          88 444 235 239
          230 7 51 39
          88 239 156 157
          205 77 443 9
          95 333 8 439
          105 59 411 217
          161 276 24 7
          37 210 143 211
          185 448 186 436
          284 25 285 39
          16 86 100 404
          85 68 78 370
          32 409 447 408
          284 26 161 285
          103 281 17 437
          360 103 281 17
          58 411 60 442
          43 436 442 440
          78 68 85 3
          242 211 210 212
          213 210 273 214
          369 371 68 78
          306 326 164 296
          258 277 252 260
          381 292 174 291
          60 63 149 114
          251 47 252 253
          438 290 101 15
          436 438 154 442
          218 93 94 217
          65 181 206 3
          40 25 39 72
          222 224 329 280
          443 387 2 53
          268 210 214 212
          68 207 67 3
          447 441 9 440
          5 65 64 78
          12 147 414 446
          135 150 133 136
          65 206 429 3
          238 235 115 232
          401 106 375 441
          78 65 64 3
          68 78 207 3
          111 96 61 219
          49 360 446 437
          445 117 266 10
          412 97 219 94
          27 80 123 45
          207 64 67 78
          265 124 231 194
          404 100 447 38
          108 35 79 286
          371 362 68 78
          32 127 447 409
          16 409 369 447
          437 365 389 127
          122 117 121 120
          394 149 113 114
          446 202 201 42
          355 354 173 48
          60 149 63 55
          234 230 387 395
          276 7 50 391
          192 220 441 135
          183 293 448 14
          125 171 179 419
          60 63 62 55
          122 117 445 10
          443 77 139 9
          125 419 193 171
          218 444 217 105
          246 247 147 148
          171 169 355 48
          5 431 447 32
          394 56 96 393
          60 149 394 114
          441 155 377 3
          443 4 77 204
          234 209 395 92
          135 133 120 136
          389 294 358 437
          394 96 56 113
          120 117 116 445
          93 113 394 149
          445 135 191 441
          5 431 440 447
          265 124 188 198
          135 134 150 220
          88 109 18 75
          408 409 369 407
          82 83 437 389
          74 425 426 25
          150 135 133 138
          419 48 187 171
          284 25 39 40
          305 309 326 304
          338 349 337 340
          410 436 90 437
          143 242 210 212
          442 71 59 35
          437 90 415 414
          235 236 115 232
          19 234 92 91
          26 276 24 161
          235 444 232 239
          96 190 393 56
          270 184 176 245
          414 83 415 437
          135 151 136 191
          440 106 442 58
          119 132 120 392
          111 21 112 93
          149 63 113 114
          447 369 78 408
          55 191 144 136
          60 63 114 62
          8 333 88 439
          27 50 390 391
          324 305 335 336
          171 355 173 48
          27 123 80 275
          160 156 22 159
          135 441 134 220
          448 244 183 14
          437 127 447 32
          86 370 369 371
          239 21 158 111
          159 111 158 61
          404 370 403 369
          95 442 105 59
          270 262 184 194
          10 122 282 445
          334 41 307 162
          227 41 334 162
          88 23 75 76
          18 88 75 76
          54 243 448 14
          285 25 161 39
          221 226 413 280
          9 134 137 138
          74 425 40 274
          278 197 446 201
          437 42 365 406
          132 133 120 20
          149 144 63 55
          89 49 12 446
          270 289 125 383
          24 284 39 40
          93 96 111 94
          157 111 159 218
          230 7 396 51
          135 220 150 151
          403 155 441 85
          340 402 348 298
          207 78 67 3
          324 305 308 304
          222 224 280 223
          203 431 32 437
          203 42 437 406
          278 147 364 288
          365 364 389 127
          261 263 176 178
          364 147 82 288
          269 177 263 178
          133 135 120 138
          334 307 226 162
          449 433 183 434
          437 90 189 436
          358 258 83 359
          181 106 401 441
          293 439 438 448
          370 371 68 369
          93 394 96 94
          280 226 413 223
          363 220 38 441
          86 370 404 369
          183 433 432 434
          5 440 65 441
          92 116 395 387
          323 163 162 41
          448 443 54 439
          74 285 284 426
          159 218 61 219
          69 153 70 267
          193 180 125 384
          8 439 88 157
          65 181 70 206
          414 83 437 82
          58 60 62 106
          116 395 387 397
          183 293 438 448
          441 57 220 192
          436 442 154 286
          361 44 449 15
          206 181 401 3
          223 273 142 214
          26 80 284 276
          289 177 379 383
          88 240 75 23
          266 10 444 445
          223 226 142 273
          24 40 39 110
          120 117 445 122
          120 20 138 117
          216 429 66 430
          232 444 21 239
          280 413 142 223
          55 106 152 62
          33 100 9 447
          387 395 2 53
          254 388 261 257
          294 389 33 437
          412 393 97 94
          88 18 109 115
          400 58 181 69
          143 210 374 273
          139 116 387 53
          327 314 309 304
          388 178 261 257
          194 84 195 246
          250 254 251 148
          92 387 234 139
          396 7 118 51
          118 7 50 51
          196 231 84 194
          118 52 51 116
          191 151 136 55
          261 184 257 245
          106 152 191 55
          267 181 70 69
          437 389 33 127
          392 132 120 20
          37 211 143 448
          50 27 123 45
          143 210 213 212
          176 184 261 245
          121 117 119 120
          120 445 138 135
          134 135 150 138
          90 410 437 415
          284 161 7 39
          230 209 395 234
          92 395 234 387
          384 383 379 125
          415 83 46 437
          437 294 358 359
          444 442 445 149
          120 445 136 122
          191 192 135 151
          116 92 138 139
          367 227 228 141
          92 209 392 20
          110 39 209 91
          89 414 437 446
          447 38 137 441
          389 83 437 359
          319 321 312 316
          305 309 164 326
          330 316 318 331
          55 106 60 149
          221 162 413 226
          33 100 447 16
          334 226 413 162
          437 127 33 447
          261 178 176 257
          237 11 44 449
          352 224 222 215
          134 138 133 20
          404 16 447 100
          397 395 387 53
          449 30 418 438
          342 378 350 349
          9 447 137 441
          340 402 353 348
          63 144 112 145
          348 402 347 298
          376 192 57 441
          197 278 364 288
          303 305 327 335
          363 57 220 441
          93 111 219 94
          143 448 242 244
          88 18 115 235
          93 239 21 444
          448 243 244 14
          370 68 78 369
          371 372 362 31
          402 346 347 298
          141 227 162 163
          224 223 222 215
          369 85 403 441
          149 411 442 60
          267 153 216 66
          80 26 272 45
          201 197 446 42
          80 272 123 45
          379 292 381 291
          270 384 289 262
          442 95 286 35
          255 253 252 47
          438 449 183 448
          30 433 449 325
          437 83 46 359
          437 43 281 431
          329 322 221 280
          113 114 190 56
          222 215 223 214
          369 87 371 407
          445 117 116 266
          206 401 377 3
          206 181 70 267
          152 192 191 151
          206 267 70 66
          169 172 355 48
          215 213 223 214
          134 150 133 138
          261 262 176 263
          111 96 219 94
          93 217 394 94
          65 440 58 441
          16 409 86 369
          394 393 96 94
          71 65 440 58
          394 113 56 114
          157 156 160 159
          104 145 21 444
          24 230 110 39
          433 449 325 434
          256 388 254 255
          146 84 246 195
          24 284 7 39
          24 161 7 284
          8 157 160 159
          223 213 273 214
          341 300 378 342
          213 210 214 268
          390 7 50 118
          117 119 120 392
          278 147 82 364
          240 241 109 75
          273 226 413 374
          93 21 157 111
          284 285 161 39
          160 240 22 156
          135 192 220 151
          218 111 61 219
          159 156 22 158
          157 156 159 158
          157 111 158 159
          117 392 120 20
          324 303 305 304
          277 251 252 253
          273 413 142 374
          157 88 160 156
          339 338 300 337
          445 144 136 122
          444 10 104 282
          246 184 245 148
          439 443 445 442
          301 330 309 310
          440 443 442 445
          247 248 147 148
          180 187 193 419
          256 255 254 253
          88 238 156 239
          88 235 232 239
          175 269 263 178
          222 280 221 223
          196 84 195 194
          88 232 238 239
          0 185 436 443
          89 90 189 437
          35 442 95 59
          218 111 159 61
          157 93 111 218
          165 434 308 432
          417 322 329 353
          173 354 170 356
          394 60 411 149
          263 383 177 289
          54 448 439 14
          84 184 270 245
          262 176 263 289
          379 381 174 291
          307 323 162 41
          234 209 92 91
          58 62 181 106
          446 278 82 364
          181 62 107 106
          341 300 351 378
          181 58 70 69
          403 155 363 441
          155 57 363 441
          394 411 217 149
          255 257 254 47
          250 254 257 251
          245 250 248 148
          409 87 86 369
          377 155 441 376
          289 383 384 125
          147 148 82 246
          389 358 294 33
          182 295 221 280
          361 438 449 229
          218 157 217 444
          375 377 441 376
          28 438 368 128
          386 144 112 63
          149 106 60 445
          92 116 387 139
          299 328 322 182
          185 0 4 443
          440 135 445 441
          413 226 142 223
          125 292 291 179
          420 47 249 251
          445 116 53 266
          255 178 388 257
          65 58 70 181
          8 157 159 218
          352 347 225 353
          34 290 438 237
          230 39 51 209
          110 39 230 209
          1 443 398 53
          193 384 125 270
          149 445 60 442
          434 163 308 432
          258 251 252 277
          104 444 21 232
          24 7 230 39
          360 36 103 437
          203 17 431 437
          88 76 235 439
          120 116 138 445
          8 444 439 157
          171 167 169 187
          187 167 169 48
          84 245 247 246
          257 254 47 420
          171 187 169 48
          167 187 124 188
          341 378 351 342
          206 181 107 401
          107 181 375 401
          71 440 442 58
          213 214 215 268
          113 190 96 56
          96 412 219 94
          191 135 445 136
          135 138 139 445
          140 18 235 271
          257 254 420 251
          157 239 158 111
          93 21 239 157
          180 187 194 193
          194 187 124 193
          146 84 195 196
          288 199 197 278
          449 435 183 448
          247 84 246 146
          167 188 124 198
          167 188 198 126
          445 138 139 443
          40 74 284 426
          440 106 58 441
          293 439 448 14
          395 209 51 92
          205 443 440 9
          40 425 102 73
          28 436 438 128
          24 26 161 284
          19 110 234 91
          350 346 298 345
          257 184 250 245
          221 280 142 223
          386 144 444 112
          40 25 72 425
          389 437 358 359
          239 157 444 93
          124 194 193 231
          446 147 82 278
          393 190 97 56
          397 398 2 53
          269 177 264 263
          258 259 83 81
          209 119 51 392
          93 219 218 94
          84 270 184 194
          175 269 264 263
          446 365 437 42
          227 41 162 163
          52 396 118 51
          301 321 316 330
          205 437 440 436
          432 163 308 41
          316 332 321 312
          398 443 2 53
          273 373 142 214
          353 224 329 225
          93 111 218 219
          222 223 142 214
          281 6 108 43
          330 321 316 331
          373 273 142 374
          141 11 438 449
          441 38 134 220
          89 414 446 12
          228 227 162 141
          222 221 142 223
          371 87 372 407
          392 51 116 117
          9 440 441 135
          330 302 309 310
          65 429 64 3
          405 403 38 404
          306 295 296 182
          37 143 210 228
          228 143 210 227
          37 143 228 227
          342 349 350 298
          444 271 104 266
          438 449 30 183
          20 392 116 117
          360 437 103 17
          43 436 35 442
          88 238 109 156
          371 362 369 31
          445 122 282 144
          120 445 135 136
          88 115 109 238
          303 305 335 324
          302 331 318 339
          362 64 207 78
          362 207 68 78
          88 235 115 238
          146 199 288 278
          278 147 288 146
          199 196 195 233
          233 196 195 98
          199 196 233 98
          146 195 246 288
          288 247 246 146
          26 284 24 276
          255 388 254 257
          443 116 53 445
          230 110 209 234
          250 420 249 251
          446 197 365 42
          205 77 204 443
          70 153 216 267
          440 43 437 431
          227 334 228 162
          88 76 18 235
          88 157 439 444
          30 449 361 325
          227 334 374 228
          334 226 273 374
          305 326 164 304
          316 300 332 341
          447 409 369 408
          442 436 438 439
          186 211 37 448
          17 437 203 446
          88 109 240 156
          88 240 160 156
          88 240 109 75
          194 196 265 195
          240 22 109 241
          143 211 210 242
          250 184 254 148
          258 251 148 249
          263 177 264 289
          271 18 235 236
          369 408 407 31
          408 369 78 31
          443 0 4 204
          369 403 404 441
          196 198 265 98
          361 30 418 449
          37 143 227 448
          237 449 290 438
          147 248 83 82
          147 148 248 82
          84 184 245 246
          194 84 246 184
          246 248 247 148
          246 245 248 148
          250 249 248 148
          246 245 247 248
          248 148 249 82
          248 249 83 82
          82 249 83 258
          410 436 437 46
          82 258 148 249
          16 86 404 369
          262 261 176 184
          250 251 249 148
          438 229 15 154
          254 253 47 251
          270 262 289 176
          98 195 233 265
          176 261 257 245
          182 307 295 280
          294 447 9 440
          406 365 437 127
          8 105 444 157
          195 196 265 98
          395 397 2 53
          205 436 46 437
          439 443 54 266
          437 281 17 431
          439 445 266 444
          251 252 259 258
          251 259 249 258
          251 47 249 259
          251 47 259 252
          258 252 259 260
          260 252 259 81
          258 260 259 81
          227 334 273 374
          331 341 318 300
          295 162 221 307
          196 124 265 198
          257 261 254 250
          261 184 254 250
          257 184 261 250
          419 171 179 173
          266 117 116 10
          196 124 231 265
          196 265 231 194
          194 270 193 231
          355 172 354 48
          179 292 291 170
          437 446 82 364
          278 197 364 446
          367 141 448 227
          17 446 203 202
          412 190 97 393
          365 389 364 437
          93 386 444 112
          444 145 21 112
          93 444 21 112
          446 147 414 82
          437 446 414 82
          444 217 149 93
          444 149 386 93
          96 190 412 393
          96 393 412 94
          43 440 442 71
          37 448 227 367
          448 438 435 227
          439 448 436 438
          26 272 45 161
          448 141 438 227
          213 210 268 212
          194 180 270 262
          194 180 193 270
          270 262 176 184
          194 270 231 84
          334 374 228 162
          349 300 337 378
          71 442 59 58
          143 210 273 213
          40 425 74 25
          40 426 284 25
          40 73 102 274
          40 74 426 25
          40 72 102 425
          55 106 445 191
          4 279 77 204
          80 27 275 276
          80 27 276 45
          50 27 45 276
          50 276 45 7
          161 45 276 7
          26 276 161 45
          26 80 276 45
          235 104 232 444
          295 323 162 307
          308 163 323 41
          447 38 100 137
          105 59 442 411
          51 397 395 116
          258 260 81 358
          126 188 198 283
          83 259 46 359
          116 397 387 53
          0 443 436 204
          437 36 103 436
          371 407 372 31
          301 320 313 428
          95 439 8 105
          342 349 298 346
          289 383 379 384
          185 443 448 436
          250 257 420 251
          420 254 47 251
          147 246 82 288
          440 431 437 447
          294 447 440 437
          288 199 287 197
          288 199 195 287
          146 199 195 288
          147 247 246 288
          270 180 384 262
          270 384 125 289
          319 313 312 321
          444 445 282 144
          359 259 46 81
          83 259 359 81
          358 258 359 81
          359 258 83 81
          425 25 72 73
          425 72 102 73
          307 226 221 280
          307 162 221 226
          348 349 340 298
          444 445 144 149
          306 163 162 323
          308 163 306 323
          164 339 318 299
          338 339 299 337
          144 145 444 112
          323 295 182 307
          299 338 166 328
          342 346 298 350
          295 306 162 323
          316 341 332 317
          331 316 318 341
          306 295 182 323
          315 303 309 327
          339 331 318 300
          165 324 308 304
          419 187 193 171
          299 296 338 328
          179 291 356 170
          341 300 337 318
          301 313 321 311
          328 295 221 182
          222 329 221 280
          329 224 322 280
          331 316 341 300
          327 303 314 304
          295 307 221 280
          318 339 300 337
          319 316 312 344
          305 327 309 304
          309 302 326 314
          324 305 336 165
          306 308 164 304
          308 305 164 304
          237 11 325 44
          165 163 304 308
          308 163 304 306
          316 300 331 332
          328 182 221 280
          322 328 221 280
          296 295 328 182
          299 296 328 182
          439 445 444 442
          302 309 326 318
          340 338 299 337
          326 309 164 318
          310 302 309 314
          316 317 312 344
          31 64 207 362
          446 360 17 437
          315 320 301 310
          305 303 327 304
          116 139 443 53
          70 429 65 206
          323 306 296 182
          311 302 330 310
          310 314 315 303
          315 314 309 303
          301 310 309 315
          310 314 309 315
          437 359 46 205
          329 224 222 225
          167 357 187 188
          351 342 343 345
          88 333 240 23
          327 303 309 314
          341 351 332 317
          436 43 437 440
          173 48 419 171
          95 439 105 442
          70 66 429 206
          88 157 444 239
          316 331 321 332
          301 313 319 321
          301 319 316 321
          164 323 296 182
          164 306 296 323
          164 306 323 308
          165 305 308 324
          322 182 328 280
          309 314 326 304
          165 163 308 434
          185 243 211 448
          140 271 235 444
          333 23 439 293
          329 328 221 322
          166 328 329 322
          349 342 337 340
          297 342 351 345
          143 211 242 448
          302 330 318 331
          302 331 311 330
          330 321 331 311
          88 160 240 333
          8 154 333 95
          333 154 229 95
          449 11 44 325
          185 1 448 443
          448 1 54 443
          439 443 436 448
          333 229 23 293
          31 64 362 78
          316 341 317 297
          318 339 337 299
          349 340 298 346
          210 273 373 374
          143 374 227 273
          1 443 2 398
          297 351 343 345
          164 296 339 299
          338 296 299 339
          296 326 164 339
          339 326 164 318
          339 302 326 318
          40 72 110 424
          166 353 225 348
          337 300 341 342
          379 422 380 381
          353 347 225 348
          279 387 2 443
          166 340 353 348
          319 316 344 297
          316 317 344 297
          345 344 343 297
          322 224 329 353
          166 353 329 225
          293 23 418 229
          293 418 30 229
          179 356 173 170
          442 411 149 444
          441 192 106 375
          376 192 441 375
          338 300 337 349
          379 292 291 125
          341 351 317 297
          342 350 351 343
          351 344 343 317
          297 344 351 317
          105 411 442 217
          345 342 343 350
          342 346 350 345
          264 379 380 382
          289 177 264 379
          70 429 66 216
          341 300 332 351
          297 344 343 351
          386 111 112 93
          263 176 383 289
          225 224 222 352
          353 224 225 352
          443 4 2 279
          1 4 443 185
          447 127 16 409
          119 51 392 117
          167 357 188 126
          126 188 283 357
          355 354 170 173
          179 355 170 173
          179 171 355 173
          19 72 424 91
          179 291 173 356
          193 180 384 270
          400 267 69 107
          58 62 400 181
          400 62 107 181
          167 48 187 357
          409 87 369 407
          291 419 179 173
          205 440 443 436
          5 64 408 78
          210 227 374 228
          273 210 373 214
          408 64 31 78
          361 449 438 15
          391 7 50 390
          166 417 353 340
          299 328 417 322
          417 328 166 322
          104 282 145 444
          445 106 60 442
          434 163 432 41
          12 146 446 200
          369 362 371 78
          218 157 444 105
          369 87 86 371
          31 362 369 78
          34 290 101 438
          414 147 83 82
          37 227 228 367
          443 445 53 266
          294 33 447 437
          127 33 447 16
          28 186 367 368
          5 447 441 78
          185 1 243 448
          446 278 201 200
          128 11 237 368
          143 210 227 374
          378 300 337 342
          58 442 60 106
          375 106 107 62
          152 106 375 62
          107 106 375 181
          349 378 337 342
          442 411 59 58
          152 192 376 375
          340 346 402 298
          125 384 179 291
          379 423 292 125
          384 379 291 125
          385 356 173 291
          269 177 380 264
          379 383 423 125
          379 383 422 423
          379 381 423 422
          382 379 174 291
          113 111 386 93
          379 382 174 381
          382 380 174 381
          379 380 382 381
          113 386 149 93
          110 234 230 387
          51 396 230 395
          149 144 386 63
          113 386 63 149
          191 445 144 136
          55 445 144 191
          55 106 149 445
          55 445 149 144
          301 310 428 311
          301 428 313 311
          103 281 437 436
          89 366 36 437
          89 437 189 366
          382 174 385 291
          292 174 291 385
          292 385 291 170
          291 385 356 170
          385 174 356 170
          292 174 385 170
          388 263 261 178
          175 263 388 178
          175 263 261 388
          175 388 261 256
          261 388 254 256
          437 366 36 436
          105 442 444 217
          440 443 139 9
          89 90 437 414
          368 11 438 141
          389 258 83 358
          389 83 359 358
          442 439 154 95
          5 65 440 71
          183 293 30 438
          82 258 83 389
          333 23 88 439
          20 92 138 392
          392 92 138 116
          20 392 138 116
          392 51 92 116
          92 209 51 392
          8 105 439 444
          105 442 439 444
          51 52 397 116
          51 395 92 116
          334 226 374 413
          96 412 61 219
          93 96 394 113
          51 396 395 397
          186 448 37 367
          51 52 396 397
          230 209 51 395
          24 396 276 230
          24 7 396 230
          24 7 276 396
          396 7 276 391
          391 7 390 396
          390 7 118 396
          52 390 118 396
          391 396 390 52
          166 417 329 353
          186 438 448 367
          436 43 281 437
          357 399 168 126
          399 167 168 126
          357 167 399 126
          48 167 399 357
          169 399 172 48
          169 168 399 48
          48 167 168 399
          169 168 172 399
          100 86 405 404
          279 387 443 77
          441 155 57 376
          86 370 403 404
          16 87 86 409
          137 38 100 405
          437 436 189 366
          369 407 371 31
          439 23 88 76
          369 85 441 78
          244 448 242 243
          29 189 90 410
          299 328 166 417
          441 404 369 447
          447 369 441 78
          369 447 404 16
          221 413 142 280
          273 226 142 413
          437 410 46 415
          89 90 414 12
          28 186 368 438
          166 338 299 417
          417 338 299 340
          166 338 417 340
          384 419 179 291
          125 419 179 384
          125 180 419 384
          125 180 193 419
          19 424 110 91
          424 72 19 102
          379 177 422 383
          110 72 39 424
          424 39 110 91
          424 72 39 91
          422 177 379 264
          380 422 379 264
          380 177 422 264
          269 177 422 380
          379 381 292 423
          40 72 424 102
          110 19 234 424
          265 195 233 427
          98 265 233 427
          283 427 198 98
          265 198 427 98
          265 198 188 427
          283 188 198 427
          429 66 430 206
          430 66 67 206
          430 206 67 3
          430 67 64 3
          429 430 64 3
          429 206 430 3
          49 36 437 89
          137 38 134 441
          49 36 360 437
          181 441 401 3
          377 401 375 441
          85 155 441 3
          43 442 35 71
          205 294 440 437
          437 294 359 205
          434 449 325 163
          191 106 445 440
          440 445 191 441
          444 10 282 445
          88 439 235 444
          444 271 235 104
          235 140 444 439
          235 76 140 439
          439 443 266 445
          447 431 437 32
          404 38 447 441
          436 443 439 442
          443 1 54 53
          449 44 290 15
          143 435 448 244
          448 435 183 244
          15 438 361 229
          446 42 203 202
          438 30 418 229
          43 431 440 5
          5 441 65 78
          9 137 134 441
          202 200 49 446
          9 447 100 137
          440 441 191 106
          78 85 441 3
          377 401 441 3
          440 9 139 135
          443 53 54 266
          49 200 12 446
          442 95 154 286
          446 146 278 200
          43 440 71 5
          443 139 387 53
          449 163 434 41
          438 435 449 448
          361 449 44 325
          34 128 237 438
          368 438 367 141
          28 186 438 436
          34 128 438 436
          34 438 101 436
          438 154 15 79
          141 11 449 163
          449 11 325 163
          101 438 15 79
          436 154 438 79
          101 436 438 79
          436 6 281 43
          43 6 108 436
          108 6 79 436
          436 79 101 6
          436 101 130 6
          436 130 103 6
          103 6 281 436
          186 368 438 367
          448 438 186 436
          205 294 9 440
          361 449 418 229
          449 438 418 229
          243 1 54 448
          435 449 432 41
          36 130 103 436
          436 130 416 36
          366 436 416 36
          438 449 435 227
          449 434 432 41
          183 434 432 449
          189 13 366 436
          436 13 366 416
          13 436 208 416
          436 130 208 416
          130 208 34 436
          208 128 34 436
          293 439 229 438
          439 293 76 14
          439 23 76 293
          54 439 76 14
          141 449 438 227
          227 449 435 41
          436 443 442 440
          333 439 95 229
          439 229 154 95
          441 191 106 192
          79 436 154 286
          446 360 49 202
          17 360 446 202
          79 436 286 35
          108 436 79 35
          43 108 35 436
          404 403 38 441
          403 363 38 441
          205 443 204 436
          444 411 149 217
          437 42 203 446
          446 147 278 146
          12 147 446 146
          440 139 445 135
          185 448 211 186
          438 439 154 442
          9 441 134 135
          439 140 444 266
          140 271 444 266
          441 192 135 191
          266 10 104 444
          445 116 138 443
          293 333 229 439
          34 101 130 436
          438 229 154 439
          439 54 140 266
          129 28 128 436
          13 129 128 436
          13 436 128 208
          129 13 189 436
          129 189 29 436
          436 189 29 410
          131 436 29 410
          131 436 410 46
          237 11 438 368
          410 189 90 436
          227 163 449 41
          449 433 30 183
          131 436 46 204
          205 436 204 46
          78 441 65 3
          441 181 65 3
          446 197 364 365
          444 149 144 386
          0 436 131 204
          0 436 99 131
          131 436 99 29
          99 436 421 29
          436 129 421 29
          436 28 421 129
          99 28 421 436
          186 28 99 436
          0 186 99 436
          0 185 186 436
          439 76 140 54
          446 365 364 437
          444 282 145 144
          65 441 58 181
          441 106 58 181
          237 44 290 449
          438 449 290 15
        </DataArray>
        <DataArray type="Int32" Name="offsets" format="ascii">
          4 8 12 16 20 24 28 32 36 40 44 48 52 56 60 64 68 72 76 80 84 88 92 96 100 104 108 112 116 120 124 128 132 136 140 144 148 152 156 160 164 168 172 176 180 184 188 192 196 200 204 208 212 216 220 224 228 232 236 240 244 248 252 256 260 264 268 272 276 280 284 288 292 296 300 304 308 312 316 320 324 328 332 336 340 344 348 352 356 360 364 368 372 376 380 384 388 392 396 400 404 408 412 416 420 424 428 432 436 440 444 448 452 456 460 464 468 472 476 480 484 488 492 496 500 504 508 512 516 520 524 528 532 536 540 544 548 552 556 560 564 568 572 576 580 584 588 592 596 600 604 608 612 616 620 624 628 632 636 640 644 648 652 656 660 664 668 672 676 680 684 688 692 696 700 704 708 712 716 720 724 728 732 736 740 744 748 752 756 760 764 768 772 776 780 784 788 792 796 800 804 808 812 816 820 824 828 832 836 840 844 848 852 856 860 864 868 872 876 880 884 888 892 896 900 904 908 912 916 920 924 928 932 936 940 944 948 952 956 960 964 968 972 976 980 984 988 992 996 1000 1004 1008 1012 1016 1020 1024 1028 1032 1036 1040 1044 1048 1052 1056 1060 1064 1068 1072 1076 1080 1084 1088 1092 1096 1100 1104 1108 1112 1116 1120 1124 1128 1132 1136 1140 1144 1148 1152 1156 1160 1164 1168 1172 1176 1180 1184 1188 1192 1196 1200 1204 1208 1212 1216 1220 1224 1228 1232 1236 1240 1244 1248 1252 1256 1260 1264 1268 1272 1276 1280 1284 1288 1292 1296 1300 1304 1308 1312 1316 1320 1324 1328 1332 1336 1340 1344 1348 1352 1356 1360 1364 1368 1372 1376 1380 1384 1388 1392 1396 1400 1404 1408 1412 1416 1420 1424 1428 1432 1436 1440 1444 1448 1452 1456 1460 1464 1468 1472 1476 1480 1484 1488 1492 1496 1500 1504 1508 1512 1516 1520 1524 1528 1532 1536 1540 1544 1548 1552 1556 1560 1564 1568 1572 1576 1580 1584 1588 1592 1596 1600 1604 1608 1612 1616 1620 1624 1628 1632 1636 1640 1644 1648 1652 1656 1660 1664 1668 1672 1676 1680 1684 1688 1692 1696 1700 1704 1708 1712 1716 1720 1724 1728 1732 1736 1740 1744 1748 1752 1756 1760 1764 1768 1772 1776 1780 1784 1788 1792 1796 1800 1804 1808 1812 1816 1820 1824 1828 1832 1836 1840 1844 1848 1852 1856 1860 1864 1868 1872 1876 1880 1884 1888 1892 1896 1900 1904 1908 1912 1916 1920 1924 1928 1932 1936 1940 1944 1948 1952 1956 1960 1964 1968 1972 1976 1980 1984 1988 1992 1996 2000 2004 2008 2012 2016 2020 2024 2028 2032 2036 2040 2044 2048 2052 2056 2060 2064 2068 2072 2076 2080 2084 2088 2092 2096 2100 2104 2108 2112 2116 2120 2124 2128 2132 2136 2140 2144 2148 2152 2156 2160 2164 2168 2172 2176 2180 2184 2188 2192 2196 2200 2204 2208 2212 2216 2220 2224 2228 2232 2236 2240 2244 2248 2252 2256 2260 2264 2268 2272 2276 2280 2284 2288 2292 2296 2300 2304 2308 2312 2316 2320 2324 2328 2332 2336 2340 2344 2348 2352 2356 2360 2364 2368 2372 2376 2380 2384 2388 2392 2396 2400 2404 2408 2412 2416 2420 2424 2428 2432 2436 2440 2444 2448 2452 2456 2460 2464 2468 2472 2476 2480 2484 2488 2492 2496 2500 2504 2508 2512 2516 2520 2524 2528 2532 2536 2540 2544 2548 2552 2556 2560 2564 2568 2572 2576 2580 2584 2588 2592 2596 2600 2604 2608 2612 2616 2620 2624 2628 2632 2636 2640 2644 2648 2652 2656 2660 2664 2668 2672 2676 2680 2684 2688 2692 2696 2700 2704 2708 2712 2716 2720 2724 2728 2732 2736 2740 2744 2748 2752 2756 2760 2764 2768 2772 2776 2780 2784 2788 2792 2796 2800 2804 2808 2812 2816 2820 2824 2828 2832 2836 2840 2844 2848 2852 2856 2860 2864 2868 2872 2876 2880 2884 2888 2892 2896 2900 2904 2908 2912 2916 2920 2924 2928 2932 2936 2940 2944 2948 2952 2956 2960 2964 2968 2972 2976 2980 2984 2988 2992 2996 3000 3004 3008 3012 3016 3020 3024 3028 3032 3036 3040 3044 3048 3052 3056 3060 3064 3068 3072 3076 3080 3084 3088 3092 3096 3100 3104 3108 3112 3116 3120 3124 3128 3132 3136 3140 3144 3148 3152 3156 3160 3164 3168 3172 3176 3180 3184 3188 3192 3196 3200 3204 3208 3212 3216 3220 3224 3228 3232 3236 3240 3244 3248 3252 3256 3260 3264 3268 3272 3276 3280 3284 3288 3292 3296 3300 3304 3308 3312 3316 3320 3324 3328 3332 3336 3340 3344 3348 3352 3356 3360 3364 3368 3372 3376 3380 3384 3388 3392 3396 3400 3404 3408 3412 3416 3420 3424 3428 3432 3436 3440 3444 3448 3452 3456 3460 3464 3468 3472 3476 3480 3484 3488 3492 3496 3500 3504 3508 3512 3516 3520 3524 3528 3532 3536 3540 3544 3548 3552 3556 3560 3564 3568 3572 3576 3580 3584 3588 3592 3596 3600 3604 3608 3612 3616 3620 3624 3628 3632 3636 3640 3644 3648 3652 3656 3660 3664 3668 3672 3676 3680 3684 3688 3692 3696 3700 3704 3708 3712 3716 3720 3724 3728 3732 3736 3740 3744 3748 3752 3756 3760 3764 3768 3772 3776 3780 3784 3788 3792 3796 3800 3804 3808 3812 3816 3820 3824 3828 3832 3836 3840 3844 3848 3852 3856 3860 3864 3868 3872 3876 3880 3884 3888 3892 3896 3900 3904 3908 3912 3916 3920 3924 3928 3932 3936 3940 3944 3948 3952 3956 3960 3964 3968 3972 3976 3980 3984 3988 3992 3996 4000 4004 4008 4012 4016 4020 4024 4028 4032 4036 4040 4044 4048 4052 4056 4060 4064 4068 4072 4076 4080 4084 4088 4092 4096 4100 4104 4108 4112 4116 4120 4124 4128 4132 4136 4140 4144 4148 4152 4156 4160 4164 4168 4172 4176 4180 4184 4188 4192 4196 4200 4204 4208 4212 4216 4220 4224 4228 4232 4236 4240 4244 4248 4252 4256 4260 4264 4268 4272 4276 4280 4284 4288 4292 4296 4300 4304 4308 4312 4316 4320 4324 4328 4332 4336 4340 4344 4348 4352 4356 4360 4364 4368 4372 4376 4380 4384 4388 4392 4396 4400 4404 4408 4412 4416 4420 4424 4428 4432 4436 4440 4444 4448 4452 4456 4460 4464 4468 4472 4476 4480 4484 4488 4492 4496 4500 4504 4508 4512 4516 4520 4524 4528 4532 4536 4540 4544 4548 4552 4556 4560 4564 4568 4572 4576 4580 4584 4588 4592 4596 4600 4604 4608 4612 4616 4620 4624 4628 4632 4636 4640 4644 4648 4652 4656 4660 4664 4668 4672 4676 4680 4684 4688 4692 4696 4700 4704 4708 4712 4716 4720 4724 4728 4732 4736 4740 4744 4748 4752 4756 4760 4764 4768 4772 4776 4780 4784 4788 4792 4796 4800 4804 4808 4812 4816 4820 4824 4828 4832 4836 4840 4844 4848 4852 4856 4860 4864 4868 4872 4876 4880 4884 4888 4892 4896 4900 4904 4908 4912 4916 4920 4924 4928 4932 4936 4940 4944 4948 4952 4956 4960 4964 4968 4972 4976 4980 4984 4988 4992 4996 5000 5004 5008 5012 5016 5020 5024 5028 5032 5036 5040 5044 5048 5052 5056 5060 5064 5068 5072 5076 5080 5084 5088 5092 5096 5100 5104 5108 5112 5116 5120 5124 5128 5132 5136 5140 5144 5148 5152 5156 
        </DataArray>
        <DataArray type="UInt8" Name="types" format="ascii">
          10 10 10 10 10 10 10 10 10 10 10 10 10 10 10 10 10 10 10 10 10 10 10 10 10 10 10 10 10 10 10 10 10 10 10 10 10 10 10 10 10 10 10 10 10 10 10 10 10 10 10 10 10 10 10 10 10 10 10 10 10 10 10 10 10 10 10 10 10 10 10 10 10 10 10 10 10 10 10 10 10 10 10 10 10 10 10 10 10 10 10 10 10 10 10 10 10 10 10 10 10 10 10 10 10 10 10 10 10 10 10 10 10 10 10 10 10 10 10 10 10 10 10 10 10 10 10 10 10 10 10 10 10 10 10 10 10 10 10 10 10 10 10 10 10 10 10 10 10 10 10 10 10 10 10 10 10 10 10 10 10 10 10 10 10 10 10 10 10 10 10 10 10 10 10 10 10 10 10 10 10 10 10 10 10 10 10 10 10 10 10 10 10 10 10 10 10 10 10 10 10 10 10 10 10 10 10 10 10 10 10 10 10 10 10 10 10 10 10 10 10 10 10 10 10 10 10 10 10 10 10 10 10 10 10 10 10 10 10 10 10 10 10 10 10 10 10 10 10 10 10 10 10 10 10 10 10 10 10 10 10 10 10 10 10 10 10 10 10 10 10 10 10 10 10 10 10 10 10 10 10 10 10 10 10 10 10 10 10 10 10 10 10 10 10 10 10 10 10 10 10 10 10 10 10 10 10 10 10 10 10 10 10 10 10 10 10 10 10 10 10 10 10 10 10 10 10 10 10 10 10 10 10 10 10 10 10 10 10 10 10 10 10 10 10 10 10 10 10 10 10 10 10 10 10 10 10 10 10 10 10 10 10 10 10 10 10 10 10 10 10 10 10 10 10 10 10 10 10 10 10 10 10 10 10 10 10 10 10 10 10 10 10 10 10 10 10 10 10 10 10 10 10 10 10 10 10 10 10 10 10 10 10 10 10 10 10 10 10 10 10 10 10 10 10 10 10 10 10 10 10 10 10 10 10 10 10 10 10 10 10 10 10 10 10 10 10 10 10 10 10 10 10 10 10 10 10 10 10 10 10 10 10 10 10 10 10 10 10 10 10 10 10 10 10 10 10 10 10 10 10 10 10 10 10 10 10 10 10 10 10 10 10 10 10 10 10 10 10 10 10 10 10 10 10 10 10 10 10 10 10 10 10 10 10 10 10 10 10 10 10 10 10 10 10 10 10 10 10 10 10 10 10 10 10 10 10 10 10 10 10 10 10 10 10 10 10 10 10 10 10 10 10 10 10 10 10 10 10 10 10 10 10 10 10 10 10 10 10 10 10 10 10 10 10 10 10 10 10 10 10 10 10 10 10 10 10 10 10 10 10 10 10 10 10 10 10 10 10 10 10 10 10 10 10 10 10 10 10 10 10 10 10 10 10 10 10 10 10 10 10 10 10 10 10 10 10 10 10 10 10 10 10 10 10 10 10 10 10 10 10 10 10 10 10 10 10 10 10 10 10 10 10 10 10 10 10 10 10 10 10 10 10 10 10 10 10 10 10 10 10 10 10 10 10 10 10 10 10 10 10 10 10 10 10 10 10 10 10 10 10 10 10 10 10 10 10 10 10 10 10 10 10 10 10 10 10 10 10 10 10 10 10 10 10 10 10 10 10 10 10 10 10 10 10 10 10 10 10 10 10 10 10 10 10 10 10 10 10 10 10 10 10 10 10 10 10 10 10 10 10 10 10 10 10 10 10 10 10 10 10 10 10 10 10 10 10 10 10 10 10 10 10 10 10 10 10 10 10 10 10 10 10 10 10 10 10 10 10 10 10 10 10 10 10 10 10 10 10 10 10 10 10 10 10 10 10 10 10 10 10 10 10 10 10 10 10 10 10 10 10 10 10 10 10 10 10 10 10 10 10 10 10 10 10 10 10 10 10 10 10 10 10 10 10 10 10 10 10 10 10 10 10 10 10 10 10 10 10 10 10 10 10 10 10 10 10 10 10 10 10 10 10 10 10 10 10 10 10 10 10 10 10 10 10 10 10 10 10 10 10 10 10 10 10 10 10 10 10 10 10 10 10 10 10 10 10 10 10 10 10 10 10 10 10 10 10 10 10 10 10 10 10 10 10 10 10 10 10 10 10 10 10 10 10 10 10 10 10 10 10 10 10 10 10 10 10 10 10 10 10 10 10 10 10 10 10 10 10 10 10 10 10 10 10 10 10 10 10 10 10 10 10 10 10 10 10 10 10 10 10 10 10 10 10 10 10 10 10 10 10 10 10 10 10 10 10 10 10 10 10 10 10 10 10 10 10 10 10 10 10 10 10 10 10 10 10 10 10 10 10 10 10 10 10 10 10 10 10 10 10 10 10 10 10 10 10 10 10 10 10 10 10 10 10 10 10 10 10 10 10 10 10 10 10 10 10 10 10 10 10 10 10 10 10 10 10 10 10 10 10 10 10 10 10 10 10 10 10 10 10 10 10 10 10 10 10 10 10 10 10 10 10 10 10 10 10 10 10 10 10 10 10 10 10 10 10 10 10 10 10 10 10 10 10 10 10 10 10 10 10 10 10 10 10 10 10 10 10 10 10 10 10 10 10 10 10 10 10 10 10 10 10 10 10 10 10 10 10 10 10 10 10 10 10 10 10 10 10 10 10 10 10 10 10 10 10 10 10 10 10 10 10 10 10 10 10 10 10 10 10 10 10 10 10 10 10 10 10 10 10 10 10 10 10 10 10 10 10 10 10 10 10 10 10 10 10 10 10 10 10 10 10 10 10 10 10 10 10 10 10 10 10 10 10 10 10 10 10 10 10 10 10 10 10 10 10 10 10 10 10 10 10 10 10 10 10 10 10 10 10 10 10 10 10 10 10 10 10 10 10 10 10 10 10 10 10 10 10 10 10 10 10 10 10 10 10 10 10 10 10 10 10 10 10 10 10 10 10 
        </DataArray>
      </Cells>
    </Piece>
  </UnstructuredGrid>
</VTKFile>
